filter/mult_sim.vcd
$date
	Tue Sep 30 18:05:04 2025
$end
$version
	Icarus Verilog
$end
$timescale
	1ps
$end
$scope module mult_test $end
$var wire 16 ! out [15:0] $end
$var reg 8 " a [7:0] $end
$var reg 8 # b [7:0] $end
$var reg 1 $ clk $end
$scope module DD1 $end
$var wire 1 $ clk $end
$var wire 8 % multipliable_1 [7:0] $end
$var wire 8 & multipliable_2 [7:0] $end
$var reg 16 ' composition [15:0] $end
$var reg 16 ( multipliables [15:0] $end
$upscope $end
$upscope $end
$enddefinitions $end
$comment Show the parameter values. $end
$dumpall
$end
#0
$dumpvars
bx (
bx '
b0 &
b0 %
0$
b0 #
b0 "
bx !
$end
#50
b0 (
b1 #
b1 &
b1 "
b1 %
1$
#100
0$
#150
b10 #
b10 &
b10 "
b10 %
b0 !
b0 '
b100000001 (
1$
#200
0$
#250
b1 !
b1 '
b1000000010 (
b11 #
b11 &
b11 "
b11 %
1$
#300
0$
#350
b100 #
b100 &
b100 "
b100 %
b100 !
b100 '
b1100000011 (
1$
#400
0$
#450
b1001 !
b1001 '
b10000000100 (
b101 #
b101 &
b101 "
b101 %
1$
#500
0$
#550
b110 #
b110 &
b110 "
b110 %
b10000 !
b10000 '
b10100000101 (
1$
#600
0$
#650
b11001 !
b11001 '
b11000000110 (
b111 #
b111 &
b111 "
b111 %
1$
#700
0$
#750
b1000 #
b1000 &
b1000 "
b1000 %
b100100 !
b100100 '
b11100000111 (
1$
#800
0$
#850
b110001 !
b110001 '
b100000001000 (
b1001 #
b1001 &
b1001 "
b1001 %
1$
#900
0$
#950
b1010 #
b1010 &
b1010 "
b1010 %
b1000000 !
b1000000 '
b100100001001 (
1$
#1000
0$
#1050
b1010001 !
b1010001 '
b101000001010 (
b1011 #
b1011 &
b1011 "
b1011 %
1$
#1100
0$
#1150
b1100 #
b1100 &
b1100 "
b1100 %
b1100100 !
b1100100 '
b101100001011 (
1$
#1200
0$
#1250
b1111001 !
b1111001 '
b110000001100 (
b1101 #
b1101 &
b1101 "
b1101 %
1$
#1300
0$
#1350
b1110 #
b1110 &
b1110 "
b1110 %
b10010000 !
b10010000 '
b110100001101 (
1$
#1400
0$
#1450
b10101001 !
b10101001 '
b111000001110 (
b1111 #
b1111 &
b1111 "
b1111 %
1$
#1500
0$
#1550
b10000 #
b10000 &
b10000 "
b10000 %
b11000100 !
b11000100 '
b111100001111 (
1$
#1600
0$
#1650
b11100001 !
b11100001 '
b1000000010000 (
b10001 #
b10001 &
b10001 "
b10001 %
1$
#1700
0$
#1750
b10010 #
b10010 &
b10010 "
b10010 %
b100000000 !
b100000000 '
b1000100010001 (
1$
#1800
0$
#1850
b100100001 !
b100100001 '
b1001000010010 (
b10011 #
b10011 &
b10011 "
b10011 %
1$
#1900
0$
#1950
b10100 #
b10100 &
b10100 "
b10100 %
b101000100 !
b101000100 '
b1001100010011 (
1$
#2000
0$
#2050
b101101001 !
b101101001 '
b1010000010100 (
b10101 #
b10101 &
b10101 "
b10101 %
1$
#2100
0$
#2150
b10110 #
b10110 &
b10110 "
b10110 %
b110010000 !
b110010000 '
b1010100010101 (
1$
#2200
0$
#2250
b110111001 !
b110111001 '
b1011000010110 (
b10111 #
b10111 &
b10111 "
b10111 %
1$
#2300
0$
#2350
b11000 #
b11000 &
b11000 "
b11000 %
b111100100 !
b111100100 '
b1011100010111 (
1$
#2400
0$
#2450
b1000010001 !
b1000010001 '
b1100000011000 (
b11001 #
b11001 &
b11001 "
b11001 %
1$
#2500
0$
#2550
b11010 #
b11010 &
b11010 "
b11010 %
b1001000000 !
b1001000000 '
b1100100011001 (
1$
#2600
0$
#2650
b1001110001 !
b1001110001 '
b1101000011010 (
b11011 #
b11011 &
b11011 "
b11011 %
1$
#2700
0$
#2750
b11100 #
b11100 &
b11100 "
b11100 %
b1010100100 !
b1010100100 '
b1101100011011 (
1$
#2800
0$
#2850
b1011011001 !
b1011011001 '
b1110000011100 (
b11101 #
b11101 &
b11101 "
b11101 %
1$
#2900
0$
#2950
b11110 #
b11110 &
b11110 "
b11110 %
b1100010000 !
b1100010000 '
b1110100011101 (
1$
#3000
0$
#3050
b1101001001 !
b1101001001 '
b1111000011110 (
b11111 #
b11111 &
b11111 "
b11111 %
1$
#3100
0$
#3150
b100000 #
b100000 &
b100000 "
b100000 %
b1110000100 !
b1110000100 '
b1111100011111 (
1$
#3200
0$
#3250
b1111000001 !
b1111000001 '
b10000000100000 (
b100001 #
b100001 &
b100001 "
b100001 %
1$
#3300
0$
#3350
b100010 #
b100010 &
b100010 "
b100010 %
b10000000000 !
b10000000000 '
b10000100100001 (
1$
#3400
0$
#3450
b10001000001 !
b10001000001 '
b10001000100010 (
b100011 #
b100011 &
b100011 "
b100011 %
1$
#3500
0$
#3550
b100100 #
b100100 &
b100100 "
b100100 %
b10010000100 !
b10010000100 '
b10001100100011 (
1$
#3600
0$
#3650
b10011001001 !
b10011001001 '
b10010000100100 (
b100101 #
b100101 &
b100101 "
b100101 %
1$
#3700
0$
#3750
b100110 #
b100110 &
b100110 "
b100110 %
b10100010000 !
b10100010000 '
b10010100100101 (
1$
#3800
0$
#3850
b10101011001 !
b10101011001 '
b10011000100110 (
b100111 #
b100111 &
b100111 "
b100111 %
1$
#3900
0$
#3950
b101000 #
b101000 &
b101000 "
b101000 %
b10110100100 !
b10110100100 '
b10011100100111 (
1$
#4000
0$
#4050
b10111110001 !
b10111110001 '
b10100000101000 (
b101001 #
b101001 &
b101001 "
b101001 %
1$
#4100
0$
#4150
b101010 #
b101010 &
b101010 "
b101010 %
b11001000000 !
b11001000000 '
b10100100101001 (
1$
#4200
0$
#4250
b11010010001 !
b11010010001 '
b10101000101010 (
b101011 #
b101011 &
b101011 "
b101011 %
1$
#4300
0$
#4350
b101100 #
b101100 &
b101100 "
b101100 %
b11011100100 !
b11011100100 '
b10101100101011 (
1$
#4400
0$
#4450
b11100111001 !
b11100111001 '
b10110000101100 (
b101101 #
b101101 &
b101101 "
b101101 %
1$
#4500
0$
#4550
b101110 #
b101110 &
b101110 "
b101110 %
b11110010000 !
b11110010000 '
b10110100101101 (
1$
#4600
0$
#4650
b11111101001 !
b11111101001 '
b10111000101110 (
b101111 #
b101111 &
b101111 "
b101111 %
1$
#4700
0$
#4750
b110000 #
b110000 &
b110000 "
b110000 %
b100001000100 !
b100001000100 '
b10111100101111 (
1$
#4800
0$
#4850
b100010100001 !
b100010100001 '
b11000000110000 (
b110001 #
b110001 &
b110001 "
b110001 %
1$
#4900
0$
#4950
b110010 #
b110010 &
b110010 "
b110010 %
b100100000000 !
b100100000000 '
b11000100110001 (
1$
