tasks/02_04_SkidBuffer/simulation/files/skidbuff_simulation.vcd
$date
	Mon Mar  2 11:13:52 2026
$end
$version
	Icarus Verilog
$end
$timescale
	1ps
$end
$scope module skidbuff_test $end
$var wire 1 ! s_valid $end
$var wire 1 " s_ready $end
$var wire 1 # s_last $end
$var wire 8 $ s_data [7:0] $end
$var wire 1 % m_valid $end
$var wire 1 & m_ready $end
$var wire 1 ' m_last $end
$var wire 8 ( m_data [7:0] $end
$var wire 8 ) data_out [7:0] $end
$var reg 1 * clk $end
$var reg 64 + data_in [63:0] $end
$var reg 1 , reset_n $end
$var reg 1 - stop $end
$var reg 64 . test_packet [63:0] $end
$var reg 1 / we $end
$var integer 32 0 i [31:0] $end
$var integer 32 1 test_num [31:0] $end
$scope function pack_data $end
$var reg 8 2 b0 [7:0] $end
$var reg 8 3 b1 [7:0] $end
$var reg 8 4 b2 [7:0] $end
$var reg 8 5 b3 [7:0] $end
$var reg 8 6 b4 [7:0] $end
$var reg 8 7 b5 [7:0] $end
$var reg 8 8 b6 [7:0] $end
$var reg 8 9 b7 [7:0] $end
$upscope $end
$scope module master $end
$var wire 1 * clk $end
$var wire 64 : data_in [63:0] $end
$var wire 1 ; flag_handshake $end
$var wire 1 , reset_n $end
$var wire 1 / we $end
$var wire 1 " ready $end
$var reg 3 < buff_count [2:0] $end
$var reg 8 = data [7:0] $end
$var reg 64 > data_buff [63:0] $end
$var reg 1 # last $end
$var reg 1 ! valid $end
$upscope $end
$scope module skid $end
$var wire 1 ? STATE_0_TO_1 $end
$var wire 1 @ STATE_1_TO_0 $end
$var wire 1 * clk $end
$var wire 1 , reset_n $end
$var wire 8 A s_data [7:0] $end
$var wire 1 # s_last $end
$var wire 1 ! s_valid $end
$var wire 1 & m_ready $end
$var reg 1 B STATE $end
$var reg 8 C m_data [7:0] $end
$var reg 1 ' m_last $end
$var reg 1 % m_valid $end
$var reg 8 D mem_data [7:0] $end
$var reg 1 E mem_last $end
$var reg 1 " s_ready $end
$upscope $end
$scope module slave $end
$var wire 1 * clk $end
$var wire 8 F data [7:0] $end
$var wire 1 G flag_handshake $end
$var wire 1 ' last $end
$var wire 1 , reset_n $end
$var wire 1 - stop $end
$var wire 1 % valid $end
$var reg 8 H data_out [7:0] $end
$var reg 1 & ready $end
$upscope $end
$scope task init_inputs $end
$upscope $end
$scope task load_data $end
$var reg 64 I data_value [63:0] $end
$upscope $end
$upscope $end
$enddefinitions $end
$comment Show the parameter values. $end
$dumpall
$end
#0
$dumpvars
bx I
b0 H
0G
b0 F
0E
b0 D
b0 C
0B
b0 A
0@
0?
b0 >
b0 =
b0 <
0;
b0 :
b1000 9
b111 8
b110 7
b101 6
b100 5
b11 4
b10 3
b1 2
bx 1
bx 0
0/
b100000000111000001100000010100000100000000110000001000000001 .
0-
0,
b0 +
0*
b0 )
b0 (
0'
0&
0%
b0 $
0#
0"
0!
$end
#50
1*
#100
0*
1,
#150
1&
1/
b100000000111000001100000010100000100000000110000001000000001 +
b100000000111000001100000010100000100000000110000001000000001 :
1*
b100000000111000001100000010100000100000000110000001000000001 I
b1 1
#200
0*
#250
1"
b111 <
b100000000111000001100000010100000100000000110000001000000001 >
0/
1*
#300
0*
#350
1;
1!
b1000000001110000011000000101000001000000001100000010 >
b1 $
b1 =
b1 A
1*
#400
0*
#450
1G
1%
b1 (
b1 C
b1 F
b10 $
b10 =
b10 A
b110 <
b10000000011100000110000001010000010000000011 >
1*
#500
0*
#550
b101 <
b100000000111000001100000010100000100 >
b11 $
b11 =
b11 A
b10 (
b10 C
b10 F
b1 )
b1 H
1*
#600
0*
#650
b10 )
b10 H
b11 (
b11 C
b11 F
b100 $
b100 =
b100 A
b100 <
b1000000001110000011000000101 >
1*
#700
0*
#750
b11 <
b10000000011100000110 >
b101 $
b101 =
b101 A
b100 (
b100 C
b100 F
b11 )
b11 H
1*
#800
0*
#850
b100 )
b100 H
b101 (
b101 C
b101 F
b110 $
b110 =
b110 A
b10 <
b100000000111 >
1*
#900
0*
#950
b1 <
b1000 >
b111 $
b111 =
b111 A
b110 (
b110 C
b110 F
b101 )
b101 H
1*
#1000
0*
#1050
b110 )
b110 H
b111 (
b111 C
b111 F
b1000 $
b1000 =
b1000 A
1#
b0 <
1*
#1100
0*
#1150
0;
0!
0#
1'
b1000 (
b1000 C
b1000 F
b111 )
b111 H
1*
#1200
0*
#1250
0G
b1000 )
b1000 H
0%
0'
1*
#1300
0*
#1350
b0 )
b0 H
1*
#1400
0*
#1450
1/
1*
b10 1
#1500
0*
#1550
b111 <
b100000000111000001100000010100000100000000110000001000000001 >
0/
1*
#1600
0*
#1650
1;
1!
b1000000001110000011000000101000001000000001100000010 >
b1 $
b1 =
b1 A
1*
#1700
0*
#1750
1G
b110 <
b10000000011100000110000001010000010000000011 >
b10 $
b10 =
b10 A
b1 (
b1 C
b1 F
1%
1*
#1800
0*
#1850
1?
0G
b1 )
b1 H
0&
b10 (
b10 C
b10 F
b11 $
b11 =
b11 A
b101 <
b100000000111000001100000010100000100 >
1-
1*
#1900
0*
#1950
0?
0;
b100 <
b1000000001110000011000000101 >
b100 $
b100 =
b100 A
0"
b11 D
1B
b0 )
b0 H
1*
#2000
0*
#2050
1G
1@
1&
1*
0-
#2100
0*
#2150
1;
0@
b11 (
b11 C
b11 F
1"
0B
b10 )
b10 H
1*
#2200
0*
#2250
b11 )
b11 H
b100 (
b100 C
b100 F
b101 $
b101 =
b101 A
b11 <
b10000000011100000110 >
1*
#2300
0*
#2350
b10 <
b100000000111 >
b110 $
b110 =
b110 A
b101 (
b101 C
b101 F
b100 )
b100 H
1*
#2400
0*
#2450
b101 )
b101 H
b110 (
b110 C
b110 F
b111 $
b111 =
b111 A
b1 <
b1000 >
1*
#2500
0*
#2550
b0 <
b1000 $
b1000 =
b1000 A
1#
b111 (
b111 C
b111 F
b110 )
b110 H
1*
#2600
0*
#2650
0;
b111 )
b111 H
1'
b1000 (
b1000 C
b1000 F
0#
0!
1*
#2700
0*
#2750
0G
0'
0%
b1000 )
b1000 H
1*
#2800
0*
#2850
b0 )
b0 H
1*
#2900
0*
#2950
1*
#3000
0*
#3050
1/
1*
b11 1
#3100
0*
#3150
b111 <
b100000000111000001100000010100000100000000110000001000000001 >
0/
1*
#3200
0*
#3250
1;
1!
b1000000001110000011000000101000001000000001100000010 >
b1 $
b1 =
b1 A
1*
#3300
0*
#3350
1G
b110 <
b10000000011100000110000001010000010000000011 >
b10 $
b10 =
b10 A
b1 (
b1 C
b1 F
1%
1*
#3400
0*
#3450
b1 )
b1 H
b10 (
b10 C
b10 F
b11 $
b11 =
b11 A
b101 <
b100000000111000001100000010100000100 >
1*
#3500
0*
#3550
1?
0G
b100 <
b1000000001110000011000000101 >
b100 $
b100 =
b100 A
b11 (
b11 C
b11 F
0&
b10 )
b10 H
1-
1*
#3600
0*
#3650
0?
0;
b0 )
b0 H
1B
b100 D
0"
b101 $
b101 =
b101 A
b11 <
b10000000011100000110 >
1*
#3700
0*
#3750
1G
1@
1&
1*
0-
#3800
0*
#3850
0@
1;
b11 )
b11 H
0B
1"
b100 (
b100 C
b100 F
1*
#3900
0*
#3950
b10 <
b100000000111 >
b110 $
b110 =
b110 A
b101 (
b101 C
b101 F
b100 )
b100 H
1*
#4000
0*
#4050
b101 )
b101 H
b110 (
b110 C
b110 F
b111 $
b111 =
b111 A
b1 <
b1000 >
1*
#4100
0*
#4150
b0 <
b1000 $
b1000 =
b1000 A
1#
b111 (
b111 C
b111 F
b110 )
b110 H
1*
#4200
0*
#4250
0;
b111 )
b111 H
1'
b1000 (
b1000 C
b1000 F
0#
0!
1*
#4300
0*
#4350
0G
0'
0%
b1000 )
b1000 H
1*
#4400
0*
#4450
b0 )
b0 H
1*
#4500
0*
#4550
1/
1*
b100 1
#4600
0*
#4650
b111 <
b100000000111000001100000010100000100000000110000001000000001 >
0/
1*
#4700
0*
#4750
1;
1!
b1000000001110000011000000101000001000000001100000010 >
b1 $
b1 =
b1 A
1*
#4800
0*
#4850
1G
1%
b1 (
b1 C
b1 F
b10 $
b10 =
b10 A
b110 <
b10000000011100000110000001010000010000000011 >
1*
#4900
0*
#4950
b101 <
b100000000111000001100000010100000100 >
b11 $
b11 =
b11 A
b10 (
b10 C
b10 F
b1 )
b1 H
1*
#5000
0*
#5050
b10 )
b10 H
b11 (
b11 C
b11 F
b100 $
b100 =
b100 A
b100 <
b1000000001110000011000000101 >
1*
#5100
0*
#5150
1?
0G
b11 <
b10000000011100000110 >
b101 $
b101 =
b101 A
b100 (
b100 C
b100 F
0&
b11 )
b11 H
1-
1*
#5200
0*
#5250
0?
0;
b0 )
b0 H
1B
b101 D
0"
b110 $
b110 =
b110 A
b10 <
b100000000111 >
1*
#5300
0*
#5350
1G
1@
1&
1*
0-
#5400
0*
#5450
0@
1;
b100 )
b100 H
0B
1"
b101 (
b101 C
b101 F
1*
#5500
0*
#5550
b1 <
b1000 >
b111 $
b111 =
b111 A
b110 (
b110 C
b110 F
b101 )
b101 H
1*
#5600
0*
#5650
b110 )
b110 H
b111 (
b111 C
b111 F
b1000 $
b1000 =
b1000 A
1#
b0 <
1*
#5700
0*
#5750
0;
0!
0#
1'
b1000 (
b1000 C
b1000 F
b111 )
b111 H
1*
#5800
0*
#5850
0G
b1000 )
b1000 H
0%
0'
1*
#5900
0*
#5950
b0 )
b0 H
1*
#6000
0*
#6050
1*
#6100
0*
#6150
1/
1*
b101 1
#6200
0*
#6250
b111 <
b100000000111000001100000010100000100000000110000001000000001 >
0/
1*
#6300
0*
#6350
1;
1!
b1000000001110000011000000101000001000000001100000010 >
b1 $
b1 =
b1 A
1*
#6400
0*
#6450
1G
1%
b1 (
b1 C
b1 F
b10 $
b10 =
b10 A
b110 <
b10000000011100000110000001010000010000000011 >
1*
#6500
0*
#6550
b101 <
b100000000111000001100000010100000100 >
b11 $
b11 =
b11 A
b10 (
b10 C
b10 F
b1 )
b1 H
1*
#6600
0*
#6650
b10 )
b10 H
b11 (
b11 C
b11 F
b100 $
b100 =
b100 A
b100 <
b1000000001110000011000000101 >
1*
#6700
0*
#6750
b11 <
b10000000011100000110 >
b101 $
b101 =
b101 A
b100 (
b100 C
b100 F
b11 )
b11 H
1*
#6800
0*
#6850
1?
0G
b100 )
b100 H
0&
b101 (
b101 C
b101 F
b110 $
b110 =
b110 A
b10 <
b100000000111 >
1-
1*
#6900
0*
#6950
0?
0;
b1 <
b1000 >
b111 $
b111 =
b111 A
0"
b110 D
1B
b0 )
b0 H
1*
#7000
0*
#7050
1G
1@
1&
1*
0-
#7100
0*
#7150
1;
0@
b110 (
b110 C
b110 F
1"
0B
b101 )
b101 H
1*
#7200
0*
#7250
b110 )
b110 H
b111 (
b111 C
b111 F
b1000 $
b1000 =
b1000 A
1#
b0 <
1*
#7300
0*
#7350
0;
0!
0#
1'
b1000 (
b1000 C
b1000 F
b111 )
b111 H
1*
#7400
0*
#7450
0G
b1000 )
b1000 H
0%
0'
1*
#7500
0*
#7550
b0 )
b0 H
1*
#7600
0*
#7650
1*
#7700
0*
#7750
1*
#7800
0*
#7850
1/
1*
b110 1
#7900
0*
#7950
b111 <
b100000000111000001100000010100000100000000110000001000000001 >
0/
1*
#8000
0*
#8050
1;
1!
b1000000001110000011000000101000001000000001100000010 >
b1 $
b1 =
b1 A
1*
#8100
0*
#8150
1G
b110 <
b10000000011100000110000001010000010000000011 >
b10 $
b10 =
b10 A
b1 (
b1 C
b1 F
1%
1*
#8200
0*
#8250
b1 )
b1 H
b10 (
b10 C
b10 F
b11 $
b11 =
b11 A
b101 <
b100000000111000001100000010100000100 >
1*
#8300
0*
#8350
b100 <
b1000000001110000011000000101 >
b100 $
b100 =
b100 A
b11 (
b11 C
b11 F
b10 )
b10 H
1*
#8400
0*
#8450
b11 )
b11 H
b100 (
b100 C
b100 F
b101 $
b101 =
b101 A
b11 <
b10000000011100000110 >
1*
#8500
0*
#8550
b10 <
b100000000111 >
b110 $
b110 =
b110 A
b101 (
b101 C
b101 F
b100 )
b100 H
1*
#8600
0*
#8650
1?
0G
b101 )
b101 H
0&
b110 (
b110 C
b110 F
b111 $
b111 =
b111 A
b1 <
b1000 >
1-
1*
#8700
0*
#8750
0?
0;
b0 <
b1000 $
b1000 =
b1000 A
1#
0"
b111 D
1B
b0 )
b0 H
1*
#8800
0*
#8850
1G
1@
1&
0#
0!
1*
0-
#8900
0*
#8950
0@
b111 (
b111 C
b111 F
1"
0B
b110 )
b110 H
1*
#9000
0*
#9050
0G
b111 )
b111 H
0%
b1000 (
b1000 C
b1000 F
1*
#9100
0*
#9150
b0 )
b0 H
1*
#9200
0*
#9250
1*
#9300
0*
#9350
1*
#9400
0*
#9450
1*
#9500
0*
#9550
1*
#9600
0*
#9650
1/
1*
b111 1
#9700
0*
#9750
b111 <
b100000000111000001100000010100000100000000110000001000000001 >
0/
1*
#9800
0*
#9850
1;
1!
b1000000001110000011000000101000001000000001100000010 >
b1 $
b1 =
b1 A
1*
#9900
0*
#9950
1?
b110 <
b10000000011100000110000001010000010000000011 >
b10 $
b10 =
b10 A
b1 (
b1 C
b1 F
1%
0&
1-
1*
#10000
0*
#10050
0?
1G
1@
0;
1&
1B
b10 D
0"
b11 $
b11 =
b11 A
b101 <
b100000000111000001100000010100000100 >
0-
1*
#10100
0*
#10150
1?
1;
0G
0@
b10 (
b10 C
b10 F
1"
0B
0&
b1 )
b1 H
1-
1*
#10200
0*
#10250
0?
1G
1@
0;
b0 )
b0 H
1&
1B
b11 D
0"
b100 $
b100 =
b100 A
b100 <
b1000000001110000011000000101 >
0-
1*
#10300
0*
#10350
1;
0@
b11 (
b11 C
b11 F
1"
0B
b10 )
b10 H
1*
#10400
0*
#10450
b11 )
b11 H
b100 (
b100 C
b100 F
b101 $
b101 =
b101 A
b11 <
b10000000011100000110 >
1*
#10500
0*
#10550
b10 <
b100000000111 >
b110 $
b110 =
b110 A
b101 (
b101 C
b101 F
b100 )
b100 H
1*
#10600
0*
#10650
b101 )
b101 H
b110 (
b110 C
b110 F
b111 $
b111 =
b111 A
b1 <
b1000 >
1*
#10700
0*
#10750
b0 <
b1000 $
b1000 =
b1000 A
1#
b111 (
b111 C
b111 F
b110 )
b110 H
1*
#10800
0*
#10850
0;
b111 )
b111 H
1'
b1000 (
b1000 C
b1000 F
0#
0!
1*
#10900
0*
#10950
0G
0'
0%
b1000 )
b1000 H
1*
#11000
0*
#11050
b0 )
b0 H
1*
#11100
0*
#11150
1/
1*
#11200
0*
#11250
b111 <
b100000000111000001100000010100000100000000110000001000000001 >
0/
b0 0
1*
#11300
0*
#11350
1;
1!
b1000000001110000011000000101000001000000001100000010 >
b1 $
b1 =
b1 A
1*
#11400
0*
#11450
1G
1%
b1 (
b1 C
b1 F
b10 $
b10 =
b10 A
b110 <
b10000000011100000110000001010000010000000011 >
1*
#11500
0*
#11550
b101 <
b100000000111000001100000010100000100 >
b11 $
b11 =
b11 A
b10 (
b10 C
b10 F
b1 )
b1 H
b1 0
1*
#11600
0*
#11650
b10 )
b10 H
b11 (
b11 C
b11 F
b100 $
b100 =
b100 A
b100 <
b1000000001110000011000000101 >
b10 0
1*
#11700
0*
#11750
b11 <
b10000000011100000110 >
b101 $
b101 =
b101 A
b100 (
b100 C
b100 F
b11 )
b11 H
b11 0
1*
#11800
0*
#11850
b100 )
b100 H
b101 (
b101 C
b101 F
b110 $
b110 =
b110 A
b10 <
b100000000111 >
b100 0
1*
#11900
0*
#11950
b1 <
b1000 >
b111 $
b111 =
b111 A
b110 (
b110 C
b110 F
b101 )
b101 H
b101 0
1*
#12000
0*
#12050
b110 )
b110 H
b111 (
b111 C
b111 F
b1000 $
b1000 =
b1000 A
1#
b0 <
b110 0
1*
#12100
0*
#12150
0;
0!
0#
1'
b1000 (
b1000 C
b1000 F
b111 )
b111 H
b111 0
1*
#12200
0*
#12250
0G
b1000 )
b1000 H
0%
0'
b1000 0
1*
#12300
0*
#12350
b0 )
b0 H
1*
