tasks/task_01_filter/simulation/files/filter_simulation.vcd
$date
	Mon Nov 10 13:30:05 2025
$end
$version
	Icarus Verilog
$end
$timescale
	1ps
$end
$scope module filter_test $end
$var wire 8 ! out [7:0] $end
$var reg 1 " clk $end
$var reg 1 # enable $end
$var reg 1 $ reset $end
$var reg 8 % x [7:0] $end
$scope module FILT $end
$var wire 1 " clk $end
$var wire 1 # enable $end
$var wire 1 $ reset $end
$var wire 8 & x [7:0] $end
$var wire 8 ' y [7:0] $end
$var reg 8 ( x_n [7:0] $end
$var reg 8 ) x_n_1 [7:0] $end
$scope module SEQ $end
$var wire 1 " clk $end
$var wire 1 # enable_start $end
$var wire 1 $ reset $end
$var wire 8 * x_n [7:0] $end
$var wire 8 + x_n_1 [7:0] $end
$var wire 8 , y [7:0] $end
$var wire 24 - mult_result [23:0] $end
$var parameter 8 . a $end
$var parameter 8 / aa $end
$var parameter 8 0 ab $end
$var parameter 8 1 b $end
$scope module MULT_AAY $end
$var wire 1 " clk $end
$var wire 1 # enable $end
$var wire 8 2 multipliable_1 [7:0] $end
$var wire 8 3 multipliable_2 [7:0] $end
$var wire 1 $ reset $end
$var reg 32 4 mult_delay [31:0] $end
$var reg 8 5 mult_result [7:0] $end
$upscope $end
$scope module MULT_ABX $end
$var wire 1 " clk $end
$var wire 1 # enable $end
$var wire 8 6 multipliable_1 [7:0] $end
$var wire 8 7 multipliable_2 [7:0] $end
$var wire 1 $ reset $end
$var reg 32 8 mult_delay [31:0] $end
$var reg 8 9 mult_result [7:0] $end
$upscope $end
$scope module MULT_BX $end
$var wire 1 " clk $end
$var wire 1 # enable $end
$var wire 8 : multipliable_1 [7:0] $end
$var wire 8 ; multipliable_2 [7:0] $end
$var wire 1 $ reset $end
$var reg 32 < mult_delay [31:0] $end
$var reg 8 = mult_result [7:0] $end
$upscope $end
$upscope $end
$upscope $end
$upscope $end
$enddefinitions $end
$comment Show the parameter values. $end
$dumpall
b11 1
b110 0
b100 /
b10 .
$end
#0
$dumpvars
b0 =
b0 <
b0 ;
b11 :
b0 9
b0 8
b0 7
b110 6
b0 5
b0 4
b0 3
b100 2
b0 -
b0 ,
b0 +
b0 *
b0 )
b0 (
b0 '
b0 &
b0 %
1$
1#
0"
b0 !
$end
#50
1"
#100
b1 %
b1 &
0"
#150
b1 (
b1 *
b1 ;
1"
#200
b10 %
b10 &
0"
#250
b11 <
b1 )
b1 +
b1 7
b10 (
b10 *
b10 ;
1"
#300
b11 %
b11 &
0"
#350
b11 !
b11 '
b11 ,
b11 3
b10 )
b10 +
b10 7
b11 (
b11 *
b11 ;
b110000000000000000 -
b11 =
b110 <
b110 8
1"
#400
b100 %
b100 &
0"
#450
b1100 !
b1100 '
b1100 ,
b1100 3
b1100 4
b110 9
b1100 8
b1100000011000000000 -
b110 =
b1001 <
b11 )
b11 +
b11 7
b100 (
b100 *
b100 ;
1"
#500
b101 %
b101 &
0"
#550
b100001 !
b100001 '
b100001 ,
b100001 3
b100 )
b100 +
b100 7
b101 (
b101 *
b101 ;
b1001 =
b1100 <
b1100 9
b10010 8
b10010000110000001100 -
b1100 5
b110000 4
1"
#600
b110 %
b110 &
0"
#650
b1001110 !
b1001110 '
b1001110 ,
b1001110 3
b110000 5
b10000100 4
b10010 9
b11000 8
b11000001001000110000 -
b1100 =
b1111 <
b101 )
b101 +
b101 7
b110 (
b110 *
b110 ;
1"
#700
b111 %
b111 &
0"
#750
b10101011 !
b10101011 '
b10101011 ,
b10101011 3
b110 )
b110 +
b110 7
b111 (
b111 *
b111 ;
b1111 =
b10010 <
b11000 9
b11110 8
b11110001100010000100 -
b10000100 5
b100111000 4
1"
#800
b1000 %
b1000 &
0"
#850
b1101000 !
b1101000 '
b1101000 ,
b1101000 3
b111000 5
b1010101100 4
b11110 9
b100100 8
b100100001111000111000 -
b10010 =
b10101 <
b111 )
b111 +
b111 7
b1000 (
b1000 *
b1000 ;
1"
#900
b1001 %
b1001 &
0"
#950
b11100101 !
b11100101 '
b11100101 ,
b11100101 3
b1000 )
b1000 +
b1000 7
b1001 (
b1001 *
b1001 ;
b10101 =
b11000 <
b100100 9
b101010 8
b101010010010010101100 -
b10101100 5
b110100000 4
1"
#1000
b1010 %
b1010 &
0"
#1050
b11100010 !
b11100010 '
b11100010 ,
b11100010 3
b10100000 5
b1110010100 4
b101010 9
b110000 8
b110000010101010100000 -
b11000 =
b11011 <
b1001 )
b1001 +
b1001 7
b1010 (
b1010 *
b1010 ;
1"
#1100
b1011 %
b1011 &
0"
#1150
b11011111 !
b11011111 '
b11011111 ,
b11011111 3
b1010 )
b1010 +
b1010 7
b1011 (
b1011 *
b1011 ;
b11011 =
b11110 <
b110000 9
b110110 8
b110110011000010010100 -
b10010100 5
b1110001000 4
1"
#1200
b1100 %
b1100 &
0"
#1250
b11011100 !
b11011100 '
b11011100 ,
b11011100 3
b10001000 5
b1101111100 4
b110110 9
b111100 8
b111100011011010001000 -
b11110 =
b100001 <
b1011 )
b1011 +
b1011 7
b1100 (
b1100 *
b1100 ;
1"
#1300
b1101 %
b1101 &
0"
#1350
b11011001 !
b11011001 '
b11011001 ,
b11011001 3
b1100 )
b1100 +
b1100 7
b1101 (
b1101 *
b1101 ;
b100001 =
b100100 <
b111100 9
b1000010 8
b1000010011110001111100 -
b1111100 5
b1101110000 4
1"
#1400
b1110 %
b1110 &
0"
#1450
b11010110 !
b11010110 '
b11010110 ,
b11010110 3
b1110000 5
b1101100100 4
b1000010 9
b1001000 8
b1001000100001001110000 -
b100100 =
b100111 <
b1101 )
b1101 +
b1101 7
b1110 (
b1110 *
b1110 ;
1"
#1500
b1111 %
b1111 &
0"
#1550
b11010011 !
b11010011 '
b11010011 ,
b11010011 3
b1110 )
b1110 +
b1110 7
b1111 (
b1111 *
b1111 ;
b100111 =
b101010 <
b1001000 9
b1001110 8
b1001110100100001100100 -
b1100100 5
b1101011000 4
1"
#1600
b10000 %
b10000 &
0"
#1650
b11010000 !
b11010000 '
b11010000 ,
b11010000 3
b1011000 5
b1101001100 4
b1001110 9
b1010100 8
b1010100100111001011000 -
b101010 =
b101101 <
b1111 )
b1111 +
b1111 7
b10000 (
b10000 *
b10000 ;
1"
#1700
b10001 %
b10001 &
0"
#1750
b11001101 !
b11001101 '
b11001101 ,
b11001101 3
b10000 )
b10000 +
b10000 7
b10001 (
b10001 *
b10001 ;
b101101 =
b110000 <
b1010100 9
b1011010 8
b1011010101010001001100 -
b1001100 5
b1101000000 4
1"
#1800
b10010 %
b10010 &
0"
#1850
b11001010 !
b11001010 '
b11001010 ,
b11001010 3
b1000000 5
b1100110100 4
b1011010 9
b1100000 8
b1100000101101001000000 -
b110000 =
b110011 <
b10001 )
b10001 +
b10001 7
b10010 (
b10010 *
b10010 ;
1"
#1900
b10011 %
b10011 &
0"
#1910
b0 !
b0 '
b0 ,
b0 3
b0 )
b0 +
b0 7
b0 (
b0 *
b0 ;
b0 =
b0 <
b0 9
b0 8
b0 -
b0 5
b0 4
0$
#1950
1"
#2000
b10100 %
b10100 &
0"
#2050
1"
#2100
b10101 %
b10101 &
0"
#2150
1"
#2200
b10110 %
b10110 &
0"
#2250
1"
#2300
b10111 %
b10111 &
0"
#2350
1"
#2400
b11000 %
b11000 &
0"
#2450
1"
#2500
b11001 %
b11001 &
0"
#2550
1"
#2600
b11010 %
b11010 &
0"
#2650
1"
#2700
b11011 %
b11011 &
0"
#2750
1"
#2800
b11100 %
b11100 &
0"
#2850
1"
#2900
b11101 %
b11101 &
0"
#2950
1"
#3000
b11110 %
b11110 &
0"
