tasks/task_01_filter/simulation/files/filter_simulation.vcd
$date
	Mon Nov 10 16:48:49 2025
$end
$version
	Icarus Verilog
$end
$timescale
	1ps
$end
$scope module filter_test $end
$var wire 32 ! out [31:0] $end
$var reg 1 " clk $end
$var reg 1 # reset $end
$var reg 32 $ x [31:0] $end
$scope module FILT $end
$var wire 1 " clk $end
$var wire 1 # reset $end
$var wire 32 % x [31:0] $end
$var wire 32 & y [31:0] $end
$var wire 32 ' even_y [31:0] $end
$var wire 1 ( even $end
$var wire 32 ) add_y [31:0] $end
$var wire 1 * add $end
$var reg 1 + counter $end
$var reg 32 , x_n [31:0] $end
$var reg 32 - x_n_1 [31:0] $end
$scope module SEQ_ADD $end
$var wire 1 " clk $end
$var wire 1 * enable_start $end
$var wire 1 # reset $end
$var wire 32 . x_n [31:0] $end
$var wire 32 / x_n_1 [31:0] $end
$var wire 32 0 temp_y [31:0] $end
$var wire 96 1 mult_result [95:0] $end
$var parameter 32 2 a $end
$var parameter 32 3 aa $end
$var parameter 32 4 ab $end
$var parameter 32 5 b $end
$var reg 32 6 y [31:0] $end
$scope module MULT_AAY $end
$var wire 1 " clk $end
$var wire 1 * enable $end
$var wire 32 7 multipliable_1 [31:0] $end
$var wire 32 8 multipliable_2 [31:0] $end
$var wire 1 # reset $end
$var reg 32 9 mult_delay [31:0] $end
$var reg 32 : mult_result [31:0] $end
$upscope $end
$scope module MULT_ABX $end
$var wire 1 " clk $end
$var wire 1 * enable $end
$var wire 32 ; multipliable_1 [31:0] $end
$var wire 32 < multipliable_2 [31:0] $end
$var wire 1 # reset $end
$var reg 32 = mult_delay [31:0] $end
$var reg 32 > mult_result [31:0] $end
$upscope $end
$scope module MULT_BX $end
$var wire 1 " clk $end
$var wire 1 * enable $end
$var wire 32 ? multipliable_1 [31:0] $end
$var wire 32 @ multipliable_2 [31:0] $end
$var wire 1 # reset $end
$var reg 32 A mult_delay [31:0] $end
$var reg 32 B mult_result [31:0] $end
$upscope $end
$upscope $end
$scope module SEQ_EVEN $end
$var wire 1 " clk $end
$var wire 1 ( enable_start $end
$var wire 1 # reset $end
$var wire 32 C x_n [31:0] $end
$var wire 32 D x_n_1 [31:0] $end
$var wire 32 E temp_y [31:0] $end
$var wire 96 F mult_result [95:0] $end
$var parameter 32 G a $end
$var parameter 32 H aa $end
$var parameter 32 I ab $end
$var parameter 32 J b $end
$var reg 32 K y [31:0] $end
$scope module MULT_AAY $end
$var wire 1 " clk $end
$var wire 1 ( enable $end
$var wire 32 L multipliable_1 [31:0] $end
$var wire 32 M multipliable_2 [31:0] $end
$var wire 1 # reset $end
$var reg 32 N mult_delay [31:0] $end
$var reg 32 O mult_result [31:0] $end
$upscope $end
$scope module MULT_ABX $end
$var wire 1 " clk $end
$var wire 1 ( enable $end
$var wire 32 P multipliable_1 [31:0] $end
$var wire 32 Q multipliable_2 [31:0] $end
$var wire 1 # reset $end
$var reg 32 R mult_delay [31:0] $end
$var reg 32 S mult_result [31:0] $end
$upscope $end
$scope module MULT_BX $end
$var wire 1 " clk $end
$var wire 1 ( enable $end
$var wire 32 T multipliable_1 [31:0] $end
$var wire 32 U multipliable_2 [31:0] $end
$var wire 1 # reset $end
$var reg 32 V mult_delay [31:0] $end
$var reg 32 W mult_result [31:0] $end
$upscope $end
$upscope $end
$upscope $end
$upscope $end
$enddefinitions $end
$comment Show the parameter values. $end
$dumpall
b11 J
b110 I
b100 H
b10 G
b11 5
b110 4
b100 3
b10 2
$end
#0
$dumpvars
b0 W
b0 V
b0 U
b11 T
b0 S
b0 R
b0 Q
b110 P
b0 O
b0 N
b0 M
b100 L
b0 K
b0 F
b0 E
b0 D
b0 C
b0 B
b0 A
b0 @
b11 ?
b0 >
b0 =
b0 <
b110 ;
b0 :
b0 9
b0 8
b100 7
b0 6
b0 1
b0 0
b0 /
b0 .
b0 -
b0 ,
0+
0*
b0 )
1(
b0 '
b0 &
b0 %
b0 $
1#
0"
b0 !
$end
#50
1*
0(
1+
1"
#100
b1 $
b1 %
0"
#150
0*
1(
0+
b1 ,
b1 .
b1 @
b1 C
b1 U
1"
#200
b10 $
b10 %
0"
#250
1*
0(
b11 V
1+
b1 -
b1 /
b1 <
b1 D
b1 Q
b10 ,
b10 .
b10 @
b10 C
b10 U
1"
#300
b11 $
b11 %
0"
#350
0*
1(
b11 E
b11 M
0+
b10 -
b10 /
b10 <
b10 D
b10 Q
b11 ,
b11 .
b11 @
b11 C
b11 U
b110000000000000000000000000000000000000000000000000000000000000000 F
b11 W
b110 A
b110 =
1"
#400
b100 $
b100 %
0"
#450
b1100 0
b1100 8
1*
0(
b110 >
b1100000000000000000000000000000011000000000000000000000000000000000 1
b110 B
b1100 N
b1100 R
b1001 V
b11 '
b11 K
1+
b11 -
b11 /
b11 <
b11 D
b11 Q
b100 ,
b100 .
b100 @
b100 C
b100 U
1"
#500
b101 $
b101 %
0"
#550
0*
1(
b100001 E
b100001 M
b11 !
b11 &
0+
b100 -
b100 /
b100 <
b100 D
b100 Q
b101 ,
b101 .
b101 @
b101 C
b101 U
b1001 W
b1100 S
b10010000000000000000000000000000110000000000000000000000000000001100 F
b1100 O
b1100 )
b1100 6
b1100 A
b10010 =
b110000 9
1"
#600
b110 $
b110 %
0"
#650
b1001110 0
b1001110 8
1*
0(
b1100 !
b1100 &
b110000 :
b10010 >
b11000000000000000000000000000001001000000000000000000000000000110000 1
b1100 B
b10000100 N
b11000 R
b1111 V
b100001 '
b100001 K
1+
b101 -
b101 /
b101 <
b101 D
b101 Q
b110 ,
b110 .
b110 @
b110 C
b110 U
1"
#700
b111 $
b111 %
0"
#750
0*
1(
b10101011 E
b10101011 M
b100001 !
b100001 &
0+
b110 -
b110 /
b110 <
b110 D
b110 Q
b111 ,
b111 .
b111 @
b111 C
b111 U
b1111 W
b11000 S
b11110000000000000000000000000001100000000000000000000000000010000100 F
b10000100 O
b1001110 )
b1001110 6
b10010 A
b11110 =
b100111000 9
1"
#800
b1000 $
b1000 %
0"
#850
b101101000 0
b101101000 8
1*
0(
b1001110 !
b1001110 &
b100111000 :
b11110 >
b100100000000000000000000000000001111000000000000000000000000100111000 1
b10010 B
b1010101100 N
b100100 R
b10101 V
b10101011 '
b10101011 K
1+
b111 -
b111 /
b111 <
b111 D
b111 Q
b1000 ,
b1000 .
b1000 @
b1000 C
b1000 U
1"
#900
b1001 $
b1001 %
0"
#950
0*
1(
b1011100101 E
b1011100101 M
b10101011 !
b10101011 &
0+
b1000 -
b1000 /
b1000 <
b1000 D
b1000 Q
b1001 ,
b1001 .
b1001 @
b1001 C
b1001 U
b10101 W
b100100 S
b101010000000000000000000000000010010000000000000000000000001010101100 F
b1010101100 O
b101101000 )
b101101000 6
b11000 A
b101010 =
b10110100000 9
1"
#1000
b1010 $
b1010 %
0"
#1050
b10111100010 0
b10111100010 8
1*
0(
b101101000 !
b101101000 &
b10110100000 :
b101010 >
b110000000000000000000000000000010101000000000000000000000010110100000 1
b11000 B
b101110010100 N
b110000 R
b11011 V
b1011100101 '
b1011100101 K
1+
b1001 -
b1001 /
b1001 <
b1001 D
b1001 Q
b1010 ,
b1010 .
b1010 @
b1010 C
b1010 U
1"
#1100
b1011 $
b1011 %
0"
#1150
0*
1(
b101111011111 E
b101111011111 M
b1011100101 !
b1011100101 &
0+
b1010 -
b1010 /
b1010 <
b1010 D
b1010 Q
b1011 ,
b1011 .
b1011 @
b1011 C
b1011 U
b11011 W
b110000 S
b110110000000000000000000000000011000000000000000000000000101110010100 F
b101110010100 O
b10111100010 )
b10111100010 6
b11110 A
b110110 =
b1011110001000 9
1"
#1200
b1100 $
b1100 %
0"
#1250
b1011111011100 0
b1011111011100 8
1*
0(
b10111100010 !
b10111100010 &
b1011110001000 :
b110110 >
b111100000000000000000000000000011011000000000000000000001011110001000 1
b11110 B
b10111101111100 N
b111100 R
b100001 V
b101111011111 '
b101111011111 K
1+
b1011 -
b1011 /
b1011 <
b1011 D
b1011 Q
b1100 ,
b1100 .
b1100 @
b1100 C
b1100 U
1"
#1300
b1101 $
b1101 %
0"
#1350
0*
1(
b10111111011001 E
b10111111011001 M
b101111011111 !
b101111011111 &
0+
b1100 -
b1100 /
b1100 <
b1100 D
b1100 Q
b1101 ,
b1101 .
b1101 @
b1101 C
b1101 U
b100001 W
b111100 S
b1000010000000000000000000000000011110000000000000000000010111101111100 F
b10111101111100 O
b1011111011100 )
b1011111011100 6
b100100 A
b1000010 =
b101111101110000 9
1"
#1400
b1110 $
b1110 %
0"
#1450
b101111111010110 0
b101111111010110 8
1*
0(
b1011111011100 !
b1011111011100 &
b101111101110000 :
b1000010 >
b1001000000000000000000000000000100001000000000000000000101111101110000 1
b100100 B
b1011111101100100 N
b1001000 R
b100111 V
b10111111011001 '
b10111111011001 K
1+
b1101 -
b1101 /
b1101 <
b1101 D
b1101 Q
b1110 ,
b1110 .
b1110 @
b1110 C
b1110 U
1"
#1500
b1111 $
b1111 %
0"
#1550
0*
1(
b1011111111010011 E
b1011111111010011 M
b10111111011001 !
b10111111011001 &
0+
b1110 -
b1110 /
b1110 <
b1110 D
b1110 Q
b1111 ,
b1111 .
b1111 @
b1111 C
b1111 U
b100111 W
b1001000 S
b1001110000000000000000000000000100100000000000000000001011111101100100 F
b1011111101100100 O
b101111111010110 )
b101111111010110 6
b101010 A
b1001110 =
b10111111101011000 9
1"
#1600
b10000 $
b10000 %
0"
#1650
b10111111111010000 0
b10111111111010000 8
1*
0(
b101111111010110 !
b101111111010110 &
b10111111101011000 :
b1001110 >
b1010100000000000000000000000000100111000000000000000010111111101011000 1
b101010 B
b101111111101001100 N
b1010100 R
b101101 V
b1011111111010011 '
b1011111111010011 K
1+
b1111 -
b1111 /
b1111 <
b1111 D
b1111 Q
b10000 ,
b10000 .
b10000 @
b10000 C
b10000 U
1"
#1700
b10001 $
b10001 %
0"
#1750
0*
1(
b101111111111001101 E
b101111111111001101 M
b1011111111010011 !
b1011111111010011 &
0+
b10000 -
b10000 /
b10000 <
b10000 D
b10000 Q
b10001 ,
b10001 .
b10001 @
b10001 C
b10001 U
b101101 W
b1010100 S
b1011010000000000000000000000000101010000000000000000101111111101001100 F
b101111111101001100 O
b10111111111010000 )
b10111111111010000 6
b110000 A
b1011010 =
b1011111111101000000 9
1"
#1800
b10010 $
b10010 %
0"
#1850
b1011111111111001010 0
b1011111111111001010 8
1*
0(
b10111111111010000 !
b10111111111010000 &
b1011111111101000000 :
b1011010 >
b1100000000000000000000000000000101101000000000000001011111111101000000 1
b110000 B
b10111111111100110100 N
b1100000 R
b110011 V
b101111111111001101 '
b101111111111001101 K
1+
b10001 -
b10001 /
b10001 <
b10001 D
b10001 Q
b10010 ,
b10010 .
b10010 @
b10010 C
b10010 U
1"
#1900
b10011 $
b10011 %
0"
#1910
b0 E
b0 M
b0 !
b0 &
b0 0
b0 8
b0 -
b0 /
b0 <
b0 D
b0 Q
b0 ,
b0 .
b0 @
b0 C
b0 U
b0 '
b0 K
b0 W
b0 V
b0 S
b0 R
b0 F
b0 O
b0 N
b0 )
b0 6
b0 B
b0 A
b0 >
b0 =
b0 1
b0 :
b0 9
0#
#1950
1"
#2000
b10100 $
b10100 %
0"
#2050
1"
#2100
b10101 $
b10101 %
0"
#2150
1"
#2200
b10110 $
b10110 %
0"
#2250
1"
#2300
b10111 $
b10111 %
0"
#2350
1"
#2400
b11000 $
b11000 %
0"
#2450
1"
#2500
b11001 $
b11001 %
0"
#2550
1"
#2600
b11010 $
b11010 %
0"
#2650
1"
#2700
b11011 $
b11011 %
0"
#2750
1"
#2800
b11100 $
b11100 %
0"
#2850
1"
#2900
b11101 $
b11101 %
0"
#2950
1"
#3000
b11110 $
b11110 %
0"
